{
"type": "FeatureCollection",
"name": "CRUCERO2",
"crs": { "type": "name", "properties": { "name": "urn:ogc:def:crs:OGC:1.3:CRS84" } },
"features": [
{ "type": "Feature", "properties": { "Name": "semaforo2.1", "description": null, "timestamp": null, "begin": null, "end": null, "altitudeMode": null, "tessellate": -1, "extrude": 0, "visibility": -1, "drawOrder": null, "icon": null }, "geometry": { "type": "Point", "coordinates": [ -101.663500107478598, 21.097894016971789, 0.0 ] } },
{ "type": "Feature", "properties": { "Name": "semaforo2.2", "description": null, "timestamp": null, "begin": null, "end": null, "altitudeMode": null, "tessellate": -1, "extrude": 0, "visibility": -1, "drawOrder": null, "icon": null }, "geometry": { "type": "Point", "coordinates": [ -101.663640095586004, 21.09766668298359, 0.0 ] } },
{ "type": "Feature", "properties": { "Name": "semaforo2.3", "description": null, "timestamp": null, "begin": null, "end": null, "altitudeMode": null, "tessellate": -1, "extrude": 0, "visibility": -1, "drawOrder": null, "icon": null }, "geometry": { "type": "Point", "coordinates": [ -101.6626790829404, 21.097866609966019, 0.0 ] } },
{ "type": "Feature", "properties": { "Name": "semaforo2.4", "description": null, "timestamp": null, "begin": null, "end": null, "altitudeMode": null, "tessellate": -1, "extrude": 0, "visibility": -1, "drawOrder": null, "icon": null }, "geometry": { "type": "Point", "coordinates": [ -101.662701813107304, 21.0976172675459, 0.0 ] } }
]
}
